Base path: 'D:/Unity/UnityEngineVersions/2021.3.9f1c1/Editor/Data', plugins path 'D:/Unity/UnityEngineVersions/2021.3.9f1c1/Editor/Data/PlaybackEngines'
Cmd: initializeCompiler


Unhandled exception: Protocol error - failed to read magic number (error -2147483644, transferred 0/4)

Quitting shader compiler process
