%YAML 1.1
%TAG !u! tag:unity3d.com,2011:
--- !u!1045 &1
EditorBuildSettings:
  m_ObjectHideFlags: 0
  serializedVersion: 2
  m_Scenes:
  - enabled: 1
    path: Assets/Scene/Main.unity
    guid: 337da5d491de6a14da3ce9584f362713
  - enabled: 1
    path: Assets/Scene/Comics.unity
    guid: c54f467c64082be4c82e5348d4593fa2
  - enabled: 1
    path: Assets/Scene/Level_01.unity
    guid: e983dfa1eca52f34abb4bf5b2c2789ca
  m_configObjects: {}
